{
  "project_info": {
    "project_number": "1040016767681",
    "firebase_url": "https://fir-namtanam-default-rtdb.firebaseio.com",
    "project_id": "fir-namtanam",
    "storage_bucket": "fir-namtanam.appspot.com"
  },
  "client": [
    {
      "client_info": {
        "mobilesdk_app_id": "1:1040016767681:android:3b27fb2003e9e98ffc3240",
        "android_client_info": {
          "package_name": "com.example.admin_namtanam"
        }
      },
      "oauth_client": [
        {
          "client_id": "1040016767681-eurol24tsgv9r8stbotc2cmteuq3k22r.apps.googleusercontent.com",
          "client_type": 1,
          "android_info": {
            "package_name": "com.example.admin_namtanam",
            "certificate_hash": "bf615660fe7ff945c306276ba1ba68987ebf7d68"
          }
        },
        {
          "client_id": "1040016767681-6fns3h1n0cisbudschvpj3kkq4lli7gk.apps.googleusercontent.com",
          "client_type": 3
        }
      ],
      "api_key": [
        {
          "current_key": "AIzaSyB3xvUd4Dg0ryhVhJa1YzMyil0N0EH_TDw"
        }
      ],
      "services": {
        "appinvite_service": {
          "other_platform_oauth_client": [
            {
              "client_id": "1040016767681-6fns3h1n0cisbudschvpj3kkq4lli7gk.apps.googleusercontent.com",
              "client_type": 3
            }
          ]
        }
      }
    },
    {
      "client_info": {
        "mobilesdk_app_id": "1:1040016767681:android:58d12b522be776e0fc3240",
        "android_client_info": {
          "package_name": "com.example.admin_project"
        }
      },
      "oauth_client": [
        {
          "client_id": "1040016767681-7uilbkuj0sks7dce6c570hh3e6i04r7o.apps.googleusercontent.com",
          "client_type": 1,
          "android_info": {
            "package_name": "com.example.admin_project",
            "certificate_hash": "bf615660fe7ff945c306276ba1ba68987ebf7d68"
          }
        },
        {
          "client_id": "1040016767681-6fns3h1n0cisbudschvpj3kkq4lli7gk.apps.googleusercontent.com",
          "client_type": 3
        }
      ],
      "api_key": [
        {
          "current_key": "AIzaSyB3xvUd4Dg0ryhVhJa1YzMyil0N0EH_TDw"
        }
      ],
      "services": {
        "appinvite_service": {
          "other_platform_oauth_client": [
            {
              "client_id": "1040016767681-6fns3h1n0cisbudschvpj3kkq4lli7gk.apps.googleusercontent.com",
              "client_type": 3
            }
          ]
        }
      }
    }
  ],
  "configuration_version": "1"
}